…
    ## [1] 10721

> H. How many orders are there? You can get this right by counting on
> the graph, but you will only get full points if you use some code to
> figure it out.

There are 41 orders, which I found by making a table that showed 41 rows
in it.

``` r
distinct(birds, scientific_name)
```

    ## # A tibble: 10,721 x 1
    ##    scientific_name          
    ##    <chr>                    
    ##  1 Struthio camelus         
    ##  2 Struthio molybdophanes   
    ##  3 Rhea americana           
    ##  4 Rhea pennata             
    ##  5 Nothocercus julius       
    ##  6 Nothocercus bonapartei   
    ##  7 Nothocercus nigrocapillus
    ##  8 Tinamus tao              
    ##  9 Tinamus solitarius       
    ## 10 Tinamus osgoodi          
    ## # ... with 10,711 more rows

``` r
count(birds, order)
```

    ## # A tibble: 41 x 2
    ##    order                n
    ##    <chr>            <int>
    ##  1 Accipitriformes    252
    ##  2 Anseriformes       178
    ##  3 Apterygiformes       5
    ##  4 Bucerotiformes      72
    ##  5 Caprimulgiformes   597
    ##  6 Cariamiformes        2
    ##  7 Casuariiformes       4
    ##  8 Cathartiformes       7
    ##  9 Charadriiformes    379
    ## 10 Ciconiiformes       19
    ## # ... with 31 more rows
…
